(kicad_sch (version 20230121) (generator eeschema)

  (uuid ba79f72d-bbc1-4aec-b9b1-1a6c717742b3)

  (paper "A4")

  (lib_symbols
    (symbol "Device:Battery_Cell" (pin_numbers hide) (pin_names (offset 0) hide) (in_bom yes) (on_board yes)
      (property "Reference" "BT" (at 2.54 2.54 0)
        (effects (font (size 1.27 1.27)) (justify left))
      )
      (property "Value" "Battery_Cell" (at 2.54 0 0)
        (effects (font (size 1.27 1.27)) (justify left))
      )
      (property "Footprint" "" (at 0 1.524 90)
        (effects (font (size 1.27 1.27)) hide)
      )
      (property "Datasheet" "~" (at 0 1.524 90)
        (effects (font (size 1.27 1.27)) hide)
      )
      (property "ki_keywords" "battery cell" (at 0 0 0)
        (effects (font (size 1.27 1.27)) hide)
      )
      (property "ki_description" "Single-cell battery" (at 0 0 0)
        (effects (font (size 1.27 1.27)) hide)
      )
      (symbol "Battery_Cell_0_1"
        (rectangle (start -2.286 1.778) (end 2.286 1.524)
          (stroke (width 0) (type default))
          (fill (type outline))
        )
        (rectangle (start -1.5748 1.1938) (end 1.4732 0.6858)
          (stroke (width 0) (type default))
          (fill (type outline))
        )
        (polyline
          (pts
            (xy 0 0.762)
            (xy 0 0)
          )
          (stroke (width 0) (type default))
          (fill (type none))
        )
        (polyline
          (pts
            (xy 0 1.778)
            (xy 0 2.54)
          )
          (stroke (width 0) (type default))
          (fill (type none))
        )
        (polyline
          (pts
            (xy 0.508 3.429)
            (xy 1.524 3.429)
          )
          (stroke (width 0.254) (type default))
          (fill (type none))
        )
        (polyline
          (pts
            (xy 1.016 3.937)
            (xy 1.016 2.921)
          )
          (stroke (width 0.254) (type default))
          (fill (type none))
        )
      )
      (symbol "Battery_Cell_1_1"
        (pin passive line (at 0 5.08 270) (length 2.54)
          (name "+" (effects (font (size 1.27 1.27))))
          (number "1" (effects (font (size 1.27 1.27))))
        )
        (pin passive line (at 0 -2.54 90) (length 2.54)
          (name "-" (effects (font (size 1.27 1.27))))
          (number "2" (effects (font (size 1.27 1.27))))
        )
      )
    )
    (symbol "Device:C_Small" (pin_numbers hide) (pin_names (offset 0.254) hide) (in_bom yes) (on_board yes)
      (property "Reference" "C" (at 0.254 1.778 0)
        (effects (font (size 1.27 1.27)) (justify left))
      )
      (property "Value" "C_Small" (at 0.254 -2.032 0)
        (effects (font (size 1.27 1.27)) (justify left))
      )
      (property "Footprint" "" (at 0 0 0)
        (effects (font (size 1.27 1.27)) hide)
      )
      (property "Datasheet" "~" (at 0 0 0)
        (effects (font (size 1.27 1.27)) hide)
      )
      (property "ki_keywords" "capacitor cap" (at 0 0 0)
        (effects (font (size 1.27 1.27)) hide)
      )
      (property "ki_description" "Unpolarized capacitor, small symbol" (at 0 0 0)
        (effects (font (size 1.27 1.27)) hide)
      )
      (property "ki_fp_filters" "C_*" (at 0 0 0)
        (effects (font (size 1.27 1.27)) hide)
      )
      (symbol "C_Small_0_1"
        (polyline
          (pts
            (xy -1.524 -0.508)
            (xy 1.524 -0.508)
          )
          (stroke (width 0.3302) (type default))
          (fill (type none))
        )
        (polyline
          (pts
            (xy -1.524 0.508)
            (xy 1.524 0.508)
          )
          (stroke (width 0.3048) (type default))
          (fill (type none))
        )
      )
      (symbol "C_Small_1_1"
        (pin passive line (at 0 2.54 270) (length 2.032)
          (name "~" (effects (font (size 1.27 1.27))))
          (number "1" (effects (font (size 1.27 1.27))))
        )
        (pin passive line (at 0 -2.54 90) (length 2.032)
          (name "~" (effects (font (size 1.27 1.27))))
          (number "2" (effects (font (size 1.27 1.27))))
        )
      )
    )
    (symbol "Device:LED" (pin_numbers hide) (pin_names (offset 1.016) hide) (in_bom yes) (on_board yes)
      (property "Reference" "D" (at 0 2.54 0)
        (effects (font (size 1.27 1.27)))
      )
      (property "Value" "LED" (at 0 -2.54 0)
        (effects (font (size 1.27 1.27)))
      )
      (property "Footprint" "" (at 0 0 0)
        (effects (font (size 1.27 1.27)) hide)
      )
      (property "Datasheet" "~" (at 0 0 0)
        (effects (font (size 1.27 1.27)) hide)
      )
      (property "ki_keywords" "LED diode" (at 0 0 0)
        (effects (font (size 1.27 1.27)) hide)
      )
      (property "ki_description" "Light emitting diode" (at 0 0 0)
        (effects (font (size 1.27 1.27)) hide)
      )
      (property "ki_fp_filters" "LED* LED_SMD:* LED_THT:*" (at 0 0 0)
        (effects (font (size 1.27 1.27)) hide)
      )
      (symbol "LED_0_1"
        (polyline
          (pts
            (xy -1.27 -1.27)
            (xy -1.27 1.27)
          )
          (stroke (width 0.254) (type default))
          (fill (type none))
        )
        (polyline
          (pts
            (xy -1.27 0)
            (xy 1.27 0)
          )
          (stroke (width 0) (type default))
          (fill (type none))
        )
        (polyline
          (pts
            (xy 1.27 -1.27)
            (xy 1.27 1.27)
            (xy -1.27 0)
            (xy 1.27 -1.27)
          )
          (stroke (width 0.254) (type default))
          (fill (type none))
        )
        (polyline
          (pts
            (xy -3.048 -0.762)
            (xy -4.572 -2.286)
            (xy -3.81 -2.286)
            (xy -4.572 -2.286)
            (xy -4.572 -1.524)
          )
          (stroke (width 0) (type default))
          (fill (type none))
        )
        (polyline
          (pts
            (xy -1.778 -0.762)
            (xy -3.302 -2.286)
            (xy -2.54 -2.286)
            (xy -3.302 -2.286)
            (xy -3.302 -1.524)
          )
          (stroke (width 0) (type default))
          (fill (type none))
        )
      )
      (symbol "LED_1_1"
        (pin passive line (at -3.81 0 0) (length 2.54)
          (name "K" (effects (font (size 1.27 1.27))))
          (number "1" (effects (font (size 1.27 1.27))))
        )
        (pin passive line (at 3.81 0 180) (length 2.54)
          (name "A" (effects (font (size 1.27 1.27))))
          (number "2" (effects (font (size 1.27 1.27))))
        )
      )
    )
    (symbol "Device:Q_NPN_BEC" (pin_names (offset 0) hide) (in_bom yes) (on_board yes)
      (property "Reference" "Q" (at 5.08 1.27 0)
        (effects (font (size 1.27 1.27)) (justify left))
      )
      (property "Value" "Q_NPN_BEC" (at 5.08 -1.27 0)
        (effects (font (size 1.27 1.27)) (justify left))
      )
      (property "Footprint" "" (at 5.08 2.54 0)
        (effects (font (size 1.27 1.27)) hide)
      )
      (property "Datasheet" "~" (at 0 0 0)
        (effects (font (size 1.27 1.27)) hide)
      )
      (property "ki_keywords" "transistor NPN" (at 0 0 0)
        (effects (font (size 1.27 1.27)) hide)
      )
      (property "ki_description" "NPN transistor, base/emitter/collector" (at 0 0 0)
        (effects (font (size 1.27 1.27)) hide)
      )
      (symbol "Q_NPN_BEC_0_1"
        (polyline
          (pts
            (xy 0.635 0.635)
            (xy 2.54 2.54)
          )
          (stroke (width 0) (type default))
          (fill (type none))
        )
        (polyline
          (pts
            (xy 0.635 -0.635)
            (xy 2.54 -2.54)
            (xy 2.54 -2.54)
          )
          (stroke (width 0) (type default))
          (fill (type none))
        )
        (polyline
          (pts
            (xy 0.635 1.905)
            (xy 0.635 -1.905)
            (xy 0.635 -1.905)
          )
          (stroke (width 0.508) (type default))
          (fill (type none))
        )
        (polyline
          (pts
            (xy 1.27 -1.778)
            (xy 1.778 -1.27)
            (xy 2.286 -2.286)
            (xy 1.27 -1.778)
            (xy 1.27 -1.778)
          )
          (stroke (width 0) (type default))
          (fill (type outline))
        )
        (circle (center 1.27 0) (radius 2.8194)
          (stroke (width 0.254) (type default))
          (fill (type none))
        )
      )
      (symbol "Q_NPN_BEC_1_1"
        (pin input line (at -5.08 0 0) (length 5.715)
          (name "B" (effects (font (size 1.27 1.27))))
          (number "1" (effects (font (size 1.27 1.27))))
        )
        (pin passive line (at 2.54 -5.08 90) (length 2.54)
          (name "E" (effects (font (size 1.27 1.27))))
          (number "2" (effects (font (size 1.27 1.27))))
        )
        (pin passive line (at 2.54 5.08 270) (length 2.54)
          (name "C" (effects (font (size 1.27 1.27))))
          (number "3" (effects (font (size 1.27 1.27))))
        )
      )
    )
    (symbol "Device:R" (pin_numbers hide) (pin_names (offset 0)) (in_bom yes) (on_board yes)
      (property "Reference" "R" (at 2.032 0 90)
        (effects (font (size 1.27 1.27)))
      )
      (property "Value" "R" (at 0 0 90)
        (effects (font (size 1.27 1.27)))
      )
      (property "Footprint" "" (at -1.778 0 90)
        (effects (font (size 1.27 1.27)) hide)
      )
      (property "Datasheet" "~" (at 0 0 0)
        (effects (font (size 1.27 1.27)) hide)
      )
      (property "ki_keywords" "R res resistor" (at 0 0 0)
        (effects (font (size 1.27 1.27)) hide)
      )
      (property "ki_description" "Resistor" (at 0 0 0)
        (effects (font (size 1.27 1.27)) hide)
      )
      (property "ki_fp_filters" "R_*" (at 0 0 0)
        (effects (font (size 1.27 1.27)) hide)
      )
      (symbol "R_0_1"
        (rectangle (start -1.016 -2.54) (end 1.016 2.54)
          (stroke (width 0.254) (type default))
          (fill (type none))
        )
      )
      (symbol "R_1_1"
        (pin passive line (at 0 3.81 270) (length 1.27)
          (name "~" (effects (font (size 1.27 1.27))))
          (number "1" (effects (font (size 1.27 1.27))))
        )
        (pin passive line (at 0 -3.81 90) (length 1.27)
          (name "~" (effects (font (size 1.27 1.27))))
          (number "2" (effects (font (size 1.27 1.27))))
        )
      )
    )
    (symbol "Graphic:Logo_Open_Hardware_Small" (in_bom no) (on_board no)
      (property "Reference" "#SYM" (at 0 6.985 0)
        (effects (font (size 1.27 1.27)) hide)
      )
      (property "Value" "Logo_Open_Hardware_Small" (at 0 -5.715 0)
        (effects (font (size 1.27 1.27)) hide)
      )
      (property "Footprint" "" (at 0 0 0)
        (effects (font (size 1.27 1.27)) hide)
      )
      (property "Datasheet" "~" (at 0 0 0)
        (effects (font (size 1.27 1.27)) hide)
      )
      (property "Sim.Enable" "0" (at 0 0 0)
        (effects (font (size 1.27 1.27)) hide)
      )
      (property "ki_keywords" "Logo" (at 0 0 0)
        (effects (font (size 1.27 1.27)) hide)
      )
      (property "ki_description" "Open Hardware logo, small" (at 0 0 0)
        (effects (font (size 1.27 1.27)) hide)
      )
      (symbol "Logo_Open_Hardware_Small_0_1"
        (polyline
          (pts
            (xy 3.3528 -4.3434)
            (xy 3.302 -4.318)
            (xy 3.175 -4.2418)
            (xy 2.9972 -4.1148)
            (xy 2.7686 -3.9624)
            (xy 2.54 -3.81)
            (xy 2.3622 -3.7084)
            (xy 2.2352 -3.6068)
            (xy 2.1844 -3.5814)
            (xy 2.159 -3.6068)
            (xy 2.0574 -3.6576)
            (xy 1.905 -3.7338)
            (xy 1.8034 -3.7846)
            (xy 1.6764 -3.8354)
            (xy 1.6002 -3.8354)
            (xy 1.6002 -3.8354)
            (xy 1.5494 -3.7338)
            (xy 1.4732 -3.5306)
            (xy 1.3462 -3.302)
            (xy 1.2446 -3.0226)
            (xy 1.1176 -2.7178)
            (xy 0.9652 -2.413)
            (xy 0.8636 -2.1082)
            (xy 0.7366 -1.8288)
            (xy 0.6604 -1.6256)
            (xy 0.6096 -1.4732)
            (xy 0.5842 -1.397)
            (xy 0.5842 -1.397)
            (xy 0.6604 -1.3208)
            (xy 0.7874 -1.2446)
            (xy 1.0414 -1.016)
            (xy 1.2954 -0.6858)
            (xy 1.4478 -0.3302)
            (xy 1.524 0.0762)
            (xy 1.4732 0.4572)
            (xy 1.3208 0.8128)
            (xy 1.0668 1.143)
            (xy 0.762 1.3716)
            (xy 0.4064 1.524)
            (xy 0 1.5748)
            (xy -0.381 1.5494)
            (xy -0.7366 1.397)
            (xy -1.0668 1.143)
            (xy -1.2192 0.9906)
            (xy -1.397 0.6604)
            (xy -1.524 0.3048)
            (xy -1.524 0.2286)
            (xy -1.4986 -0.1778)
            (xy -1.397 -0.5334)
            (xy -1.1938 -0.8636)
            (xy -0.9144 -1.143)
            (xy -0.8636 -1.1684)
            (xy -0.7366 -1.27)
            (xy -0.635 -1.3462)
            (xy -0.5842 -1.397)
            (xy -1.0668 -2.5908)
            (xy -1.143 -2.794)
            (xy -1.2954 -3.1242)
            (xy -1.397 -3.4036)
            (xy -1.4986 -3.6322)
            (xy -1.5748 -3.7846)
            (xy -1.6002 -3.8354)
            (xy -1.6002 -3.8354)
            (xy -1.651 -3.8354)
            (xy -1.7272 -3.81)
            (xy -1.905 -3.7338)
            (xy -2.0066 -3.683)
            (xy -2.1336 -3.6068)
            (xy -2.2098 -3.5814)
            (xy -2.2606 -3.6068)
            (xy -2.3622 -3.683)
            (xy -2.54 -3.81)
            (xy -2.7686 -3.9624)
            (xy -2.9718 -4.0894)
            (xy -3.1496 -4.2164)
            (xy -3.302 -4.318)
            (xy -3.3528 -4.3434)
            (xy -3.3782 -4.3434)
            (xy -3.429 -4.318)
            (xy -3.5306 -4.2164)
            (xy -3.7084 -4.064)
            (xy -3.937 -3.8354)
            (xy -3.9624 -3.81)
            (xy -4.1656 -3.6068)
            (xy -4.318 -3.4544)
            (xy -4.4196 -3.3274)
            (xy -4.445 -3.2766)
            (xy -4.445 -3.2766)
            (xy -4.4196 -3.2258)
            (xy -4.318 -3.0734)
            (xy -4.2164 -2.8956)
            (xy -4.064 -2.667)
            (xy -3.6576 -2.0828)
            (xy -3.8862 -1.5494)
            (xy -3.937 -1.3716)
            (xy -4.0386 -1.1684)
            (xy -4.0894 -1.0414)
            (xy -4.1148 -0.9652)
            (xy -4.191 -0.9398)
            (xy -4.318 -0.9144)
            (xy -4.5466 -0.8636)
            (xy -4.8006 -0.8128)
            (xy -5.0546 -0.7874)
            (xy -5.2578 -0.7366)
            (xy -5.4356 -0.7112)
            (xy -5.5118 -0.6858)
            (xy -5.5118 -0.6858)
            (xy -5.5372 -0.635)
            (xy -5.5372 -0.5588)
            (xy -5.5372 -0.4318)
            (xy -5.5626 -0.2286)
            (xy -5.5626 0.0762)
            (xy -5.5626 0.127)
            (xy -5.5372 0.4064)
            (xy -5.5372 0.635)
            (xy -5.5372 0.762)
            (xy -5.5372 0.8382)
            (xy -5.5372 0.8382)
            (xy -5.461 0.8382)
            (xy -5.3086 0.889)
            (xy -5.08 0.9144)
            (xy -4.826 0.9652)
            (xy -4.8006 0.9906)
            (xy -4.5466 1.0414)
            (xy -4.318 1.0668)
            (xy -4.1656 1.1176)
            (xy -4.0894 1.143)
            (xy -4.0894 1.143)
            (xy -4.0386 1.2446)
            (xy -3.9624 1.4224)
            (xy -3.8608 1.6256)
            (xy -3.7846 1.8288)
            (xy -3.7084 2.0066)
            (xy -3.6576 2.159)
            (xy -3.6322 2.2098)
            (xy -3.6322 2.2098)
            (xy -3.683 2.286)
            (xy -3.7592 2.413)
            (xy -3.8862 2.5908)
            (xy -4.064 2.8194)
            (xy -4.064 2.8448)
            (xy -4.2164 3.0734)
            (xy -4.3434 3.2512)
            (xy -4.4196 3.3782)
            (xy -4.445 3.4544)
            (xy -4.445 3.4544)
            (xy -4.3942 3.5052)
            (xy -4.2926 3.6322)
            (xy -4.1148 3.81)
            (xy -3.937 4.0132)
            (xy -3.8608 4.064)
            (xy -3.6576 4.2926)
            (xy -3.5052 4.4196)
            (xy -3.4036 4.4958)
            (xy -3.3528 4.5212)
            (xy -3.3528 4.5212)
            (xy -3.302 4.4704)
            (xy -3.1496 4.3688)
            (xy -2.9718 4.2418)
            (xy -2.7432 4.0894)
            (xy -2.7178 4.0894)
            (xy -2.4892 3.937)
            (xy -2.3114 3.81)
            (xy -2.1844 3.7084)
            (xy -2.1336 3.683)
            (xy -2.1082 3.683)
            (xy -2.032 3.7084)
            (xy -1.8542 3.7592)
            (xy -1.6764 3.8354)
            (xy -1.4732 3.937)
            (xy -1.27 4.0132)
            (xy -1.143 4.064)
            (xy -1.0668 4.1148)
            (xy -1.0668 4.1148)
            (xy -1.0414 4.191)
            (xy -1.016 4.3434)
            (xy -0.9652 4.572)
            (xy -0.9144 4.8514)
            (xy -0.889 4.9022)
            (xy -0.8382 5.1562)
            (xy -0.8128 5.3848)
            (xy -0.7874 5.5372)
            (xy -0.762 5.588)
            (xy -0.7112 5.6134)
            (xy -0.5842 5.6134)
            (xy -0.4064 5.6134)
            (xy -0.1524 5.6134)
            (xy 0.0762 5.6134)
            (xy 0.3302 5.6134)
            (xy 0.5334 5.6134)
            (xy 0.6858 5.588)
            (xy 0.7366 5.588)
            (xy 0.7366 5.588)
            (xy 0.762 5.5118)
            (xy 0.8128 5.334)
            (xy 0.8382 5.1054)
            (xy 0.9144 4.826)
            (xy 0.9144 4.7752)
            (xy 0.9652 4.5212)
            (xy 1.016 4.2926)
            (xy 1.0414 4.1402)
            (xy 1.0668 4.0894)
            (xy 1.0668 4.0894)
            (xy 1.1938 4.0386)
            (xy 1.3716 3.9624)
            (xy 1.5748 3.8608)
            (xy 2.0828 3.6576)
            (xy 2.7178 4.0894)
            (xy 2.7686 4.1402)
            (xy 2.9972 4.2926)
            (xy 3.175 4.4196)
            (xy 3.302 4.4958)
            (xy 3.3782 4.5212)
            (xy 3.3782 4.5212)
            (xy 3.429 4.4704)
            (xy 3.556 4.3434)
            (xy 3.7338 4.191)
            (xy 3.9116 3.9878)
            (xy 4.064 3.8354)
            (xy 4.2418 3.6576)
            (xy 4.3434 3.556)
            (xy 4.4196 3.4798)
            (xy 4.4196 3.429)
            (xy 4.4196 3.4036)
            (xy 4.3942 3.3274)
            (xy 4.2926 3.2004)
            (xy 4.1656 2.9972)
            (xy 4.0132 2.794)
            (xy 3.8862 2.5908)
            (xy 3.7592 2.3876)
            (xy 3.6576 2.2352)
            (xy 3.6322 2.159)
            (xy 3.6322 2.1336)
            (xy 3.683 2.0066)
            (xy 3.7592 1.8288)
            (xy 3.8608 1.6002)
            (xy 4.064 1.1176)
            (xy 4.3942 1.0414)
            (xy 4.5974 1.016)
            (xy 4.8768 0.9652)
            (xy 5.1308 0.9144)
            (xy 5.5372 0.8382)
            (xy 5.5626 -0.6604)
            (xy 5.4864 -0.6858)
            (xy 5.4356 -0.6858)
            (xy 5.2832 -0.7366)
            (xy 5.0546 -0.762)
            (xy 4.8006 -0.8128)
            (xy 4.5974 -0.8636)
            (xy 4.3688 -0.9144)
            (xy 4.2164 -0.9398)
            (xy 4.1402 -0.9398)
            (xy 4.1148 -0.9652)
            (xy 4.064 -1.0668)
            (xy 3.9878 -1.2446)
            (xy 3.9116 -1.4478)
            (xy 3.81 -1.651)
            (xy 3.7338 -1.8542)
            (xy 3.683 -2.0066)
            (xy 3.6576 -2.0828)
            (xy 3.683 -2.1336)
            (xy 3.7846 -2.2606)
            (xy 3.8862 -2.4638)
            (xy 4.0386 -2.667)
            (xy 4.191 -2.8956)
            (xy 4.318 -3.0734)
            (xy 4.3942 -3.2004)
            (xy 4.445 -3.2766)
            (xy 4.4196 -3.3274)
            (xy 4.3434 -3.429)
            (xy 4.1656 -3.5814)
            (xy 3.937 -3.8354)
            (xy 3.8862 -3.8608)
            (xy 3.683 -4.064)
            (xy 3.5306 -4.2164)
            (xy 3.4036 -4.318)
            (xy 3.3528 -4.3434)
          )
          (stroke (width 0) (type default))
          (fill (type outline))
        )
      )
    )
    (symbol "Switch:SW_SPDT" (pin_names (offset 0) hide) (in_bom yes) (on_board yes)
      (property "Reference" "SW" (at 0 4.318 0)
        (effects (font (size 1.27 1.27)))
      )
      (property "Value" "SW_SPDT" (at 0 -5.08 0)
        (effects (font (size 1.27 1.27)))
      )
      (property "Footprint" "" (at 0 0 0)
        (effects (font (size 1.27 1.27)) hide)
      )
      (property "Datasheet" "~" (at 0 0 0)
        (effects (font (size 1.27 1.27)) hide)
      )
      (property "ki_keywords" "switch single-pole double-throw spdt ON-ON" (at 0 0 0)
        (effects (font (size 1.27 1.27)) hide)
      )
      (property "ki_description" "Switch, single pole double throw" (at 0 0 0)
        (effects (font (size 1.27 1.27)) hide)
      )
      (symbol "SW_SPDT_0_0"
        (circle (center -2.032 0) (radius 0.508)
          (stroke (width 0) (type default))
          (fill (type none))
        )
        (circle (center 2.032 -2.54) (radius 0.508)
          (stroke (width 0) (type default))
          (fill (type none))
        )
      )
      (symbol "SW_SPDT_0_1"
        (polyline
          (pts
            (xy -1.524 0.254)
            (xy 1.651 2.286)
          )
          (stroke (width 0) (type default))
          (fill (type none))
        )
        (circle (center 2.032 2.54) (radius 0.508)
          (stroke (width 0) (type default))
          (fill (type none))
        )
      )
      (symbol "SW_SPDT_1_1"
        (pin passive line (at 5.08 2.54 180) (length 2.54)
          (name "A" (effects (font (size 1.27 1.27))))
          (number "1" (effects (font (size 1.27 1.27))))
        )
        (pin passive line (at -5.08 0 0) (length 2.54)
          (name "B" (effects (font (size 1.27 1.27))))
          (number "2" (effects (font (size 1.27 1.27))))
        )
        (pin passive line (at 5.08 -2.54 180) (length 2.54)
          (name "C" (effects (font (size 1.27 1.27))))
          (number "3" (effects (font (size 1.27 1.27))))
        )
      )
    )
    (symbol "power:GND" (power) (pin_names (offset 0)) (in_bom yes) (on_board yes)
      (property "Reference" "#PWR" (at 0 -6.35 0)
        (effects (font (size 1.27 1.27)) hide)
      )
      (property "Value" "GND" (at 0 -3.81 0)
        (effects (font (size 1.27 1.27)))
      )
      (property "Footprint" "" (at 0 0 0)
        (effects (font (size 1.27 1.27)) hide)
      )
      (property "Datasheet" "" (at 0 0 0)
        (effects (font (size 1.27 1.27)) hide)
      )
      (property "ki_keywords" "global power" (at 0 0 0)
        (effects (font (size 1.27 1.27)) hide)
      )
      (property "ki_description" "Power symbol creates a global label with name \"GND\" , ground" (at 0 0 0)
        (effects (font (size 1.27 1.27)) hide)
      )
      (symbol "GND_0_1"
        (polyline
          (pts
            (xy 0 0)
            (xy 0 -1.27)
            (xy 1.27 -1.27)
            (xy 0 -2.54)
            (xy -1.27 -1.27)
            (xy 0 -1.27)
          )
          (stroke (width 0) (type default))
          (fill (type none))
        )
      )
      (symbol "GND_1_1"
        (pin power_in line (at 0 0 270) (length 0) hide
          (name "GND" (effects (font (size 1.27 1.27))))
          (number "1" (effects (font (size 1.27 1.27))))
        )
      )
    )
  )

  (junction (at 121.285 93.98) (diameter 0) (color 0 0 0 0)
    (uuid 10cd811f-02a0-49c5-8b25-67f227d241c0)
  )
  (junction (at 102.235 95.885) (diameter 0) (color 0 0 0 0)
    (uuid 1c9a3bd3-2e1f-471e-a1a6-1b0cde87910d)
  )
  (junction (at 102.235 77.47) (diameter 0) (color 0 0 0 0)
    (uuid 299b7dd7-63d6-45cd-b3b9-185e057659ed)
  )
  (junction (at 128.905 95.885) (diameter 0) (color 0 0 0 0)
    (uuid 2a4d4778-39f4-4f76-8076-0ee0f23f3d7e)
  )
  (junction (at 121.285 77.47) (diameter 0) (color 0 0 0 0)
    (uuid 4aaec243-d97b-46c2-b7bd-4b387a8bdb69)
  )
  (junction (at 114.935 111.76) (diameter 0) (color 0 0 0 0)
    (uuid 516083d7-b495-4633-bb0e-ff90c005934b)
  )
  (junction (at 109.855 95.885) (diameter 0) (color 0 0 0 0)
    (uuid 7ad3d673-6d11-44c6-a97b-cf018e9e0d25)
  )
  (junction (at 109.855 77.47) (diameter 0) (color 0 0 0 0)
    (uuid fa1fe74e-7458-4db7-ada1-9f2483e426b0)
  )

  (no_connect (at 90.17 82.55) (uuid 41d3fe47-0fdc-4d60-9f77-2928038f64f6))

  (wire (pts (xy 114.935 95.885) (xy 109.855 95.885))
    (stroke (width 0) (type default))
    (uuid 03d71118-f1e5-494a-868b-76fe53db42ef)
  )
  (wire (pts (xy 121.285 106.045) (xy 114.935 106.045))
    (stroke (width 0) (type default))
    (uuid 066a4cb4-8d0f-4f1d-9e71-fea321845dc9)
  )
  (wire (pts (xy 90.17 77.47) (xy 102.235 77.47))
    (stroke (width 0) (type default))
    (uuid 093db7a4-4070-4a5a-a4fa-87e93ce5a655)
  )
  (wire (pts (xy 68.58 83.185) (xy 68.58 80.01))
    (stroke (width 0) (type default))
    (uuid 0d12173e-ba8e-43fa-a971-a1f897f1574e)
  )
  (wire (pts (xy 122.555 95.885) (xy 121.285 95.885))
    (stroke (width 0) (type default))
    (uuid 1295e358-a9fc-43f7-b092-8e1c5f442273)
  )
  (wire (pts (xy 121.285 77.47) (xy 128.905 77.47))
    (stroke (width 0) (type default))
    (uuid 2652eaf3-2158-4cc3-ab96-b1d8414c63bb)
  )
  (wire (pts (xy 128.905 100.965) (xy 128.905 95.885))
    (stroke (width 0) (type default))
    (uuid 26f6019a-1079-44e3-a17d-4c918b735ee6)
  )
  (wire (pts (xy 113.665 93.98) (xy 121.285 93.98))
    (stroke (width 0) (type default))
    (uuid 50321a4c-e1bf-4ee9-bff4-cbf3515def43)
  )
  (wire (pts (xy 113.665 106.045) (xy 113.665 93.98))
    (stroke (width 0) (type default))
    (uuid 5b616646-090d-438e-9c9c-5d789ff45cdc)
  )
  (wire (pts (xy 114.935 111.76) (xy 128.905 111.76))
    (stroke (width 0) (type default))
    (uuid 69fe74dd-b5f4-4b02-a7b1-74b4e67fe39a)
  )
  (wire (pts (xy 128.905 92.71) (xy 128.905 95.885))
    (stroke (width 0) (type default))
    (uuid 77fce362-5ce5-47f7-a471-50a0010e027c)
  )
  (wire (pts (xy 128.905 111.76) (xy 128.905 111.125))
    (stroke (width 0) (type default))
    (uuid 78e1efb7-6e78-4bb4-b9a5-3ed90cb1f211)
  )
  (wire (pts (xy 102.235 111.125) (xy 102.235 111.76))
    (stroke (width 0) (type default))
    (uuid 7bff5771-e6db-4018-a9fa-eb74bc0d8877)
  )
  (wire (pts (xy 114.935 112.395) (xy 114.935 111.76))
    (stroke (width 0) (type default))
    (uuid 8671ff18-351b-4145-a1e3-4e8a3f878fab)
  )
  (wire (pts (xy 68.58 80.01) (xy 80.01 80.01))
    (stroke (width 0) (type default))
    (uuid 8a9bac0a-b3db-497d-95bc-121544aa6a4f)
  )
  (wire (pts (xy 121.285 95.885) (xy 121.285 93.98))
    (stroke (width 0) (type default))
    (uuid 8b3e1431-a2d8-40c0-918c-f8bedbece9ea)
  )
  (wire (pts (xy 121.285 85.09) (xy 121.285 93.98))
    (stroke (width 0) (type default))
    (uuid 8f240692-7032-4a7a-8394-6d253916bc4e)
  )
  (wire (pts (xy 102.235 111.76) (xy 114.935 111.76))
    (stroke (width 0) (type default))
    (uuid 94945112-cbc2-498d-9c15-1c8b09b145cd)
  )
  (wire (pts (xy 109.855 85.09) (xy 109.855 95.885))
    (stroke (width 0) (type default))
    (uuid 960aedbe-fe20-46a6-ae37-0da475674c8b)
  )
  (wire (pts (xy 102.235 77.47) (xy 109.855 77.47))
    (stroke (width 0) (type default))
    (uuid 97426659-6a31-457f-a189-e0ab4e559109)
  )
  (wire (pts (xy 109.855 106.045) (xy 113.665 106.045))
    (stroke (width 0) (type default))
    (uuid 9dc4e2d1-f2e9-480f-86a7-d869fed53177)
  )
  (wire (pts (xy 103.505 95.885) (xy 102.235 95.885))
    (stroke (width 0) (type default))
    (uuid a38127b6-adb5-4e58-a0e1-e52975d61e1e)
  )
  (wire (pts (xy 102.235 95.885) (xy 102.235 100.965))
    (stroke (width 0) (type default))
    (uuid a4d35bcb-1a76-4ab5-80e4-ade5f5ae8936)
  )
  (wire (pts (xy 114.935 106.045) (xy 114.935 95.885))
    (stroke (width 0) (type default))
    (uuid a6e63661-cba5-4146-a04d-249fe4ca8363)
  )
  (wire (pts (xy 102.235 92.71) (xy 102.235 95.885))
    (stroke (width 0) (type default))
    (uuid c94d4d97-6740-48db-a23c-0a286a9a29df)
  )
  (wire (pts (xy 108.585 95.885) (xy 109.855 95.885))
    (stroke (width 0) (type default))
    (uuid d2cacd60-e614-4715-b525-ba1fc20f7eba)
  )
  (wire (pts (xy 127.635 95.885) (xy 128.905 95.885))
    (stroke (width 0) (type default))
    (uuid dce566c1-21ed-479f-8d5c-7f85bdf535eb)
  )
  (wire (pts (xy 109.855 77.47) (xy 121.285 77.47))
    (stroke (width 0) (type default))
    (uuid fbcb3322-5c26-4dd2-a5e1-571bb7ff700f)
  )

  (symbol (lib_id "power:GND") (at 114.935 112.395 0) (unit 1)
    (in_bom yes) (on_board yes) (dnp no) (fields_autoplaced)
    (uuid 0753e1f0-9af9-49ca-b44a-1b99497c6589)
    (property "Reference" "#PWR01" (at 114.935 118.745 0)
      (effects (font (size 1.27 1.27)) hide)
    )
    (property "Value" "GND" (at 114.935 117.475 0)
      (effects (font (size 1.27 1.27)))
    )
    (property "Footprint" "" (at 114.935 112.395 0)
      (effects (font (size 1.27 1.27)) hide)
    )
    (property "Datasheet" "" (at 114.935 112.395 0)
      (effects (font (size 1.27 1.27)) hide)
    )
    (pin "1" (uuid 3bbe85f8-5cd0-4ed2-9360-b77cf575bd24))
    (instances
      (project "blinky"
        (path "/ba79f72d-bbc1-4aec-b9b1-1a6c717742b3"
          (reference "#PWR01") (unit 1)
        )
      )
    )
  )

  (symbol (lib_id "Device:C_Small") (at 106.045 95.885 270) (unit 1)
    (in_bom yes) (on_board yes) (dnp no)
    (uuid 18cc7d0f-3bd0-48c6-ab05-d8083f1ba5ad)
    (property "Reference" "C2" (at 109.22 97.79 90)
      (effects (font (size 1.27 1.27)))
    )
    (property "Value" "10uf" (at 109.22 99.695 90)
      (effects (font (size 1.27 1.27)))
    )
    (property "Footprint" "Capacitor_SMD:C_0805_2012Metric" (at 106.045 95.885 0)
      (effects (font (size 1.27 1.27)) hide)
    )
    (property "Datasheet" "~" (at 106.045 95.885 0)
      (effects (font (size 1.27 1.27)) hide)
    )
    (property "LCSC" "C17024" (at 106.045 95.885 90)
      (effects (font (size 1.27 1.27)) hide)
    )
    (pin "1" (uuid 4dcc6943-efa5-483a-91b5-146d2d816614))
    (pin "2" (uuid 75969d16-17b6-4372-b177-cf486a05b3a7))
    (instances
      (project "blinky"
        (path "/ba79f72d-bbc1-4aec-b9b1-1a6c717742b3"
          (reference "C2") (unit 1)
        )
      )
    )
  )

  (symbol (lib_id "power:GND") (at 68.58 90.805 0) (unit 1)
    (in_bom yes) (on_board yes) (dnp no) (fields_autoplaced)
    (uuid 76ff7f1e-8ddf-4941-8a04-33f51274b404)
    (property "Reference" "#PWR02" (at 68.58 97.155 0)
      (effects (font (size 1.27 1.27)) hide)
    )
    (property "Value" "GND" (at 68.58 95.885 0)
      (effects (font (size 1.27 1.27)))
    )
    (property "Footprint" "" (at 68.58 90.805 0)
      (effects (font (size 1.27 1.27)) hide)
    )
    (property "Datasheet" "" (at 68.58 90.805 0)
      (effects (font (size 1.27 1.27)) hide)
    )
    (pin "1" (uuid 368cfca3-b75c-4fda-814e-1e38b93691b3))
    (instances
      (project "blinky"
        (path "/ba79f72d-bbc1-4aec-b9b1-1a6c717742b3"
          (reference "#PWR02") (unit 1)
        )
      )
    )
  )

  (symbol (lib_id "Device:Battery_Cell") (at 68.58 88.265 0) (unit 1)
    (in_bom yes) (on_board yes) (dnp no) (fields_autoplaced)
    (uuid 83c6c538-f4a2-4c98-abea-13859f0d37ce)
    (property "Reference" "BT1" (at 72.39 85.598 0)
      (effects (font (size 1.27 1.27)) (justify left))
    )
    (property "Value" "Battery_Cell" (at 72.39 88.138 0)
      (effects (font (size 1.27 1.27)) (justify left))
    )
    (property "Footprint" "Battery:C70373" (at 68.58 86.741 90)
      (effects (font (size 1.27 1.27)) hide)
    )
    (property "Datasheet" "~" (at 68.58 86.741 90)
      (effects (font (size 1.27 1.27)) hide)
    )
    (property "LCSC" "C70373" (at 68.58 88.265 0)
      (effects (font (size 1.27 1.27)) hide)
    )
    (pin "1" (uuid bdee3cc1-1662-4043-a038-9dcfb7fa6163))
    (pin "2" (uuid 154af0cb-8d25-4155-870f-8dc4e4d24f9d))
    (instances
      (project "blinky"
        (path "/ba79f72d-bbc1-4aec-b9b1-1a6c717742b3"
          (reference "BT1") (unit 1)
        )
      )
    )
  )

  (symbol (lib_id "Device:R") (at 102.235 81.28 0) (unit 1)
    (in_bom yes) (on_board yes) (dnp no)
    (uuid 862e44b3-d8c3-431e-8cc3-b771f5067b94)
    (property "Reference" "R1" (at 103.505 80.01 0)
      (effects (font (size 1.27 1.27)) (justify left))
    )
    (property "Value" "220r" (at 103.505 82.55 0)
      (effects (font (size 1.27 1.27)) (justify left))
    )
    (property "Footprint" "Resistor_SMD:R_0805_2012Metric" (at 100.457 81.28 90)
      (effects (font (size 1.27 1.27)) hide)
    )
    (property "Datasheet" "~" (at 102.235 81.28 0)
      (effects (font (size 1.27 1.27)) hide)
    )
    (property "LCSC" "C2933537" (at 102.235 81.28 0)
      (effects (font (size 1.27 1.27)) hide)
    )
    (pin "1" (uuid b2be705b-6191-410c-aa69-76542c825428))
    (pin "2" (uuid 96819668-fe82-4df8-ba7d-061d120456fc))
    (instances
      (project "blinky"
        (path "/ba79f72d-bbc1-4aec-b9b1-1a6c717742b3"
          (reference "R1") (unit 1)
        )
      )
    )
  )

  (symbol (lib_id "Device:Q_NPN_BEC") (at 104.775 106.045 0) (mirror y) (unit 1)
    (in_bom yes) (on_board yes) (dnp no)
    (uuid a4c12afb-aa67-415c-9082-9fac8a27e543)
    (property "Reference" "Q1" (at 99.06 105.41 0)
      (effects (font (size 1.27 1.27)) (justify left))
    )
    (property "Value" "Q_NPN_BEC" (at 99.06 107.95 0)
      (effects (font (size 1.27 1.27)) (justify left))
    )
    (property "Footprint" "Package_TO_SOT_SMD:SOT-23-3" (at 99.695 103.505 0)
      (effects (font (size 1.27 1.27)) hide)
    )
    (property "Datasheet" "~" (at 104.775 106.045 0)
      (effects (font (size 1.27 1.27)) hide)
    )
    (property "LCSC" "C909754" (at 104.775 106.045 0)
      (effects (font (size 1.27 1.27)) hide)
    )
    (pin "1" (uuid bcc150a3-8841-40b7-9412-4a0493c21ffc))
    (pin "2" (uuid 0677ca2e-a90e-467e-96af-b81cd2e55e6d))
    (pin "3" (uuid b7bd2ad0-6e34-4393-9da6-b102cc16c153))
    (instances
      (project "blinky"
        (path "/ba79f72d-bbc1-4aec-b9b1-1a6c717742b3"
          (reference "Q1") (unit 1)
        )
      )
    )
  )

  (symbol (lib_id "Device:R") (at 121.285 81.28 0) (unit 1)
    (in_bom yes) (on_board yes) (dnp no)
    (uuid a8384066-dc49-4c3e-a992-8fedc77399c5)
    (property "Reference" "R3" (at 122.555 80.01 0)
      (effects (font (size 1.27 1.27)) (justify left))
    )
    (property "Value" "100k" (at 122.555 82.55 0)
      (effects (font (size 1.27 1.27)) (justify left))
    )
    (property "Footprint" "Resistor_SMD:R_0805_2012Metric" (at 119.507 81.28 90)
      (effects (font (size 1.27 1.27)) hide)
    )
    (property "Datasheet" "~" (at 121.285 81.28 0)
      (effects (font (size 1.27 1.27)) hide)
    )
    (property "LCSC" "C2907293" (at 121.285 81.28 0)
      (effects (font (size 1.27 1.27)) hide)
    )
    (pin "1" (uuid 29e01a3f-0b80-48e2-8247-a58d07b7f9cb))
    (pin "2" (uuid ffac5071-b740-4f1e-b472-d157974ae2e2))
    (instances
      (project "blinky"
        (path "/ba79f72d-bbc1-4aec-b9b1-1a6c717742b3"
          (reference "R3") (unit 1)
        )
      )
    )
  )

  (symbol (lib_id "Device:R") (at 109.855 81.28 0) (unit 1)
    (in_bom yes) (on_board yes) (dnp no)
    (uuid aca1785c-8564-401d-84d2-80cd1e67b56d)
    (property "Reference" "R2" (at 111.125 80.01 0)
      (effects (font (size 1.27 1.27)) (justify left))
    )
    (property "Value" "100k" (at 111.125 82.55 0)
      (effects (font (size 1.27 1.27)) (justify left))
    )
    (property "Footprint" "Resistor_SMD:R_0805_2012Metric" (at 108.077 81.28 90)
      (effects (font (size 1.27 1.27)) hide)
    )
    (property "Datasheet" "~" (at 109.855 81.28 0)
      (effects (font (size 1.27 1.27)) hide)
    )
    (property "LCSC" "C2907293" (at 109.855 81.28 0)
      (effects (font (size 1.27 1.27)) hide)
    )
    (pin "1" (uuid 0d73049e-9ede-4e06-afd4-afb7723f5034))
    (pin "2" (uuid dea668d3-6890-4bb9-a7e6-5c505d410efb))
    (instances
      (project "blinky"
        (path "/ba79f72d-bbc1-4aec-b9b1-1a6c717742b3"
          (reference "R2") (unit 1)
        )
      )
    )
  )

  (symbol (lib_id "Switch:SW_SPDT") (at 85.09 80.01 0) (unit 1)
    (in_bom yes) (on_board yes) (dnp no) (fields_autoplaced)
    (uuid acf5ffdc-2a79-4adc-8822-b6d12821fbb2)
    (property "Reference" "SW1" (at 85.09 73.66 0)
      (effects (font (size 1.27 1.27)))
    )
    (property "Value" "SW_SPDT" (at 85.09 76.2 0)
      (effects (font (size 1.27 1.27)))
    )
    (property "Footprint" "Button_Switch_SMD:AA04A02010000018A" (at 85.09 80.01 0)
      (effects (font (size 1.27 1.27)) hide)
    )
    (property "Datasheet" "~" (at 85.09 80.01 0)
      (effects (font (size 1.27 1.27)) hide)
    )
    (property "LCSC" "C3036445" (at 85.09 80.01 0)
      (effects (font (size 1.27 1.27)) hide)
    )
    (pin "1" (uuid 6827c664-228f-482f-89ef-734af5aa30e9))
    (pin "2" (uuid cbccfa95-21f5-4c1f-aa05-f47c094093a5))
    (pin "3" (uuid 50c71cc7-52d3-4446-b940-fe45bea261b0))
    (instances
      (project "blinky"
        (path "/ba79f72d-bbc1-4aec-b9b1-1a6c717742b3"
          (reference "SW1") (unit 1)
        )
      )
    )
  )

  (symbol (lib_id "Device:LED") (at 102.235 88.9 90) (unit 1)
    (in_bom yes) (on_board yes) (dnp no)
    (uuid b7e23f38-0940-4420-80a9-2b87f7940d07)
    (property "Reference" "D2" (at 97.155 90.17 90)
      (effects (font (size 1.27 1.27)) (justify right))
    )
    (property "Value" "LED" (at 97.155 92.71 90)
      (effects (font (size 1.27 1.27)) (justify right))
    )
    (property "Footprint" "LED_SMD:LED_0805_2012Metric" (at 102.235 88.9 0)
      (effects (font (size 1.27 1.27)) hide)
    )
    (property "Datasheet" "~" (at 102.235 88.9 0)
      (effects (font (size 1.27 1.27)) hide)
    )
    (property "LCSC" "C688885" (at 102.235 88.9 90)
      (effects (font (size 1.27 1.27)) hide)
    )
    (pin "1" (uuid f47757fd-a02c-4b4d-a6b0-51687ec1d27b))
    (pin "2" (uuid f843afab-71dc-484c-af8e-f48d0d1d1bbc))
    (instances
      (project "blinky"
        (path "/ba79f72d-bbc1-4aec-b9b1-1a6c717742b3"
          (reference "D2") (unit 1)
        )
      )
    )
  )

  (symbol (lib_id "Device:Q_NPN_BEC") (at 126.365 106.045 0) (unit 1)
    (in_bom yes) (on_board yes) (dnp no)
    (uuid cbc9f5f9-e410-45ae-a98c-2cbc6fc7b5dc)
    (property "Reference" "Q2" (at 132.08 105.41 0)
      (effects (font (size 1.27 1.27)) (justify left))
    )
    (property "Value" "Q_NPN_BEC" (at 132.08 107.95 0)
      (effects (font (size 1.27 1.27)) (justify left))
    )
    (property "Footprint" "Package_TO_SOT_SMD:SOT-23-3" (at 131.445 103.505 0)
      (effects (font (size 1.27 1.27)) hide)
    )
    (property "Datasheet" "~" (at 126.365 106.045 0)
      (effects (font (size 1.27 1.27)) hide)
    )
    (property "LCSC" "C909754" (at 126.365 106.045 0)
      (effects (font (size 1.27 1.27)) hide)
    )
    (pin "1" (uuid 179c1cce-ec4b-4ae0-9e92-81f896da2533))
    (pin "2" (uuid 28e33f51-3473-4772-a68b-130575663e88))
    (pin "3" (uuid b2386760-002b-4709-a77c-3f97ffc8cd65))
    (instances
      (project "blinky"
        (path "/ba79f72d-bbc1-4aec-b9b1-1a6c717742b3"
          (reference "Q2") (unit 1)
        )
      )
    )
  )

  (symbol (lib_id "Device:LED") (at 128.905 88.9 90) (unit 1)
    (in_bom yes) (on_board yes) (dnp no) (fields_autoplaced)
    (uuid d3bab043-6ed7-4973-a967-a36c911ec2ad)
    (property "Reference" "D3" (at 132.08 89.8525 90)
      (effects (font (size 1.27 1.27)) (justify right))
    )
    (property "Value" "LED" (at 132.08 92.3925 90)
      (effects (font (size 1.27 1.27)) (justify right))
    )
    (property "Footprint" "LED_SMD:LED_0805_2012Metric" (at 128.905 88.9 0)
      (effects (font (size 1.27 1.27)) hide)
    )
    (property "Datasheet" "~" (at 128.905 88.9 0)
      (effects (font (size 1.27 1.27)) hide)
    )
    (property "LCSC" "C688885" (at 128.905 88.9 90)
      (effects (font (size 1.27 1.27)) hide)
    )
    (pin "1" (uuid 9b7df78b-6acb-46d9-a00c-6d06698fd6e8))
    (pin "2" (uuid 834497f4-0132-47bd-b5dd-3e68964b651d))
    (instances
      (project "blinky"
        (path "/ba79f72d-bbc1-4aec-b9b1-1a6c717742b3"
          (reference "D3") (unit 1)
        )
      )
    )
  )

  (symbol (lib_id "Device:C_Small") (at 125.095 95.885 270) (unit 1)
    (in_bom yes) (on_board yes) (dnp no)
    (uuid e19d6abd-d586-47bd-9914-ce8252292bba)
    (property "Reference" "C3" (at 121.92 97.79 90)
      (effects (font (size 1.27 1.27)))
    )
    (property "Value" "10uf" (at 121.92 99.695 90)
      (effects (font (size 1.27 1.27)))
    )
    (property "Footprint" "Capacitor_SMD:C_0805_2012Metric" (at 125.095 95.885 0)
      (effects (font (size 1.27 1.27)) hide)
    )
    (property "Datasheet" "~" (at 125.095 95.885 0)
      (effects (font (size 1.27 1.27)) hide)
    )
    (property "LCSC" "C17024" (at 125.095 95.885 90)
      (effects (font (size 1.27 1.27)) hide)
    )
    (pin "1" (uuid 0bcb4149-48c2-422e-b414-cc9a82b322af))
    (pin "2" (uuid d4449835-52e3-4918-85f2-18b5d5f247a1))
    (instances
      (project "blinky"
        (path "/ba79f72d-bbc1-4aec-b9b1-1a6c717742b3"
          (reference "C3") (unit 1)
        )
      )
    )
  )

  (symbol (lib_id "Device:R") (at 128.905 81.28 0) (unit 1)
    (in_bom yes) (on_board yes) (dnp no)
    (uuid f019e011-7b6b-4a64-914c-3a2564c6c37b)
    (property "Reference" "R4" (at 130.175 80.01 0)
      (effects (font (size 1.27 1.27)) (justify left))
    )
    (property "Value" "220r" (at 130.175 82.55 0)
      (effects (font (size 1.27 1.27)) (justify left))
    )
    (property "Footprint" "Resistor_SMD:R_0805_2012Metric" (at 127.127 81.28 90)
      (effects (font (size 1.27 1.27)) hide)
    )
    (property "Datasheet" "~" (at 128.905 81.28 0)
      (effects (font (size 1.27 1.27)) hide)
    )
    (property "LCSC" "C2933537" (at 128.905 81.28 0)
      (effects (font (size 1.27 1.27)) hide)
    )
    (pin "1" (uuid 32f922aa-6638-4265-b3a0-d2e7be64a3ab))
    (pin "2" (uuid 765be8b8-faba-41ee-99f9-9cbb1e207b4b))
    (instances
      (project "blinky"
        (path "/ba79f72d-bbc1-4aec-b9b1-1a6c717742b3"
          (reference "R4") (unit 1)
        )
      )
    )
  )

  (symbol (lib_id "Graphic:Logo_Open_Hardware_Small") (at 86.36 97.79 0) (unit 1)
    (in_bom no) (on_board no) (dnp no) (fields_autoplaced)
    (uuid fcdd6011-99aa-4d96-bad4-09d4926539f3)
    (property "Reference" "#SYM1" (at 86.36 90.805 0)
      (effects (font (size 1.27 1.27)) hide)
    )
    (property "Value" "Logo_Open_Hardware_Small" (at 86.36 103.505 0)
      (effects (font (size 1.27 1.27)) hide)
    )
    (property "Footprint" "" (at 86.36 97.79 0)
      (effects (font (size 1.27 1.27)) hide)
    )
    (property "Datasheet" "~" (at 86.36 97.79 0)
      (effects (font (size 1.27 1.27)) hide)
    )
    (property "Sim.Enable" "0" (at 86.36 97.79 0)
      (effects (font (size 1.27 1.27)) hide)
    )
    (instances
      (project "blinky"
        (path "/ba79f72d-bbc1-4aec-b9b1-1a6c717742b3"
          (reference "#SYM1") (unit 1)
        )
      )
    )
  )

  (sheet_instances
    (path "/" (page "1"))
  )
)
