M48
; DRILL file {KiCad 7.0.1} date Thu Aug 24 21:02:42 2023
; FORMAT={-:-/ absolute / metric / decimal}
; #@! TF.CreationDate,2023-08-24T21:02:42+03:00
; #@! TF.GenerationSoftware,Kicad,Pcbnew,7.0.1
; #@! TF.FileFunction,Plated,1,2,PTH
FMAT,2
METRIC
; #@! TA.AperFunction,Plated,PTH,ViaDrill
T1C0.350
%
G90
G05
T1
X119.304Y-74.854
X120.269Y-84.099
X131.877Y-77.546
X132.232Y-81.432
T0
M30
