%TF.GenerationSoftware,KiCad,Pcbnew,7.0.1*%
%TF.CreationDate,2023-08-24T21:02:48+03:00*%
%TF.ProjectId,blinky,626c696e-6b79-42e6-9b69-6361645f7063,rev?*%
%TF.SameCoordinates,Original*%
%TF.FileFunction,Drillmap*%
%TF.FilePolarity,Positive*%
%FSLAX45Y45*%
G04 Gerber Fmt 4.5, Leading zero omitted, Abs format (unit mm)*
G04 Created by KiCad (PCBNEW 7.0.1) date 2023-08-24 21:02:48*
%MOMM*%
%LPD*%
G01*
G04 APERTURE LIST*
%ADD10C,0.100000*%
%ADD11C,0.200000*%
G04 APERTURE END LIST*
D10*
X16773585Y-8930085D02*
G75*
G03*
X17114085Y-8590170I585J339915D01*
G01*
X11187000Y-7190000D02*
G75*
G03*
X11187000Y-7190000I-200000J0D01*
G01*
X10987000Y-6830085D02*
G75*
G03*
X10645000Y-7172085I0J-342000D01*
G01*
X10986415Y-6830085D02*
X16773585Y-6829915D01*
X17116170Y-7171915D02*
X17114085Y-8590170D01*
X17116165Y-7171915D02*
G75*
G03*
X16774169Y-6829915I-341995J5D01*
G01*
X10647084Y-8590000D02*
X10645000Y-7172085D01*
X10647084Y-8590000D02*
G75*
G03*
X10986415Y-8929915I339916J0D01*
G01*
X16773585Y-8930085D02*
X10986415Y-8929915D01*
D11*
X10887619Y-9247609D02*
X10887619Y-9047609D01*
X10887619Y-9047609D02*
X10935238Y-9047609D01*
X10935238Y-9047609D02*
X10963810Y-9057133D01*
X10963810Y-9057133D02*
X10982857Y-9076180D01*
X10982857Y-9076180D02*
X10992381Y-9095228D01*
X10992381Y-9095228D02*
X11001905Y-9133323D01*
X11001905Y-9133323D02*
X11001905Y-9161895D01*
X11001905Y-9161895D02*
X10992381Y-9199990D01*
X10992381Y-9199990D02*
X10982857Y-9219038D01*
X10982857Y-9219038D02*
X10963810Y-9238085D01*
X10963810Y-9238085D02*
X10935238Y-9247609D01*
X10935238Y-9247609D02*
X10887619Y-9247609D01*
X11087619Y-9247609D02*
X11087619Y-9114276D01*
X11087619Y-9152371D02*
X11097143Y-9133323D01*
X11097143Y-9133323D02*
X11106667Y-9123799D01*
X11106667Y-9123799D02*
X11125714Y-9114276D01*
X11125714Y-9114276D02*
X11144762Y-9114276D01*
X11211428Y-9247609D02*
X11211428Y-9114276D01*
X11211428Y-9047609D02*
X11201905Y-9057133D01*
X11201905Y-9057133D02*
X11211428Y-9066657D01*
X11211428Y-9066657D02*
X11220952Y-9057133D01*
X11220952Y-9057133D02*
X11211428Y-9047609D01*
X11211428Y-9047609D02*
X11211428Y-9066657D01*
X11335238Y-9247609D02*
X11316190Y-9238085D01*
X11316190Y-9238085D02*
X11306667Y-9219038D01*
X11306667Y-9219038D02*
X11306667Y-9047609D01*
X11440000Y-9247609D02*
X11420952Y-9238085D01*
X11420952Y-9238085D02*
X11411428Y-9219038D01*
X11411428Y-9219038D02*
X11411428Y-9047609D01*
X11668571Y-9247609D02*
X11668571Y-9047609D01*
X11668571Y-9047609D02*
X11735238Y-9190466D01*
X11735238Y-9190466D02*
X11801905Y-9047609D01*
X11801905Y-9047609D02*
X11801905Y-9247609D01*
X11982857Y-9247609D02*
X11982857Y-9142847D01*
X11982857Y-9142847D02*
X11973333Y-9123799D01*
X11973333Y-9123799D02*
X11954286Y-9114276D01*
X11954286Y-9114276D02*
X11916190Y-9114276D01*
X11916190Y-9114276D02*
X11897143Y-9123799D01*
X11982857Y-9238085D02*
X11963809Y-9247609D01*
X11963809Y-9247609D02*
X11916190Y-9247609D01*
X11916190Y-9247609D02*
X11897143Y-9238085D01*
X11897143Y-9238085D02*
X11887619Y-9219038D01*
X11887619Y-9219038D02*
X11887619Y-9199990D01*
X11887619Y-9199990D02*
X11897143Y-9180942D01*
X11897143Y-9180942D02*
X11916190Y-9171419D01*
X11916190Y-9171419D02*
X11963809Y-9171419D01*
X11963809Y-9171419D02*
X11982857Y-9161895D01*
X12078095Y-9114276D02*
X12078095Y-9314276D01*
X12078095Y-9123799D02*
X12097143Y-9114276D01*
X12097143Y-9114276D02*
X12135238Y-9114276D01*
X12135238Y-9114276D02*
X12154286Y-9123799D01*
X12154286Y-9123799D02*
X12163809Y-9133323D01*
X12163809Y-9133323D02*
X12173333Y-9152371D01*
X12173333Y-9152371D02*
X12173333Y-9209514D01*
X12173333Y-9209514D02*
X12163809Y-9228561D01*
X12163809Y-9228561D02*
X12154286Y-9238085D01*
X12154286Y-9238085D02*
X12135238Y-9247609D01*
X12135238Y-9247609D02*
X12097143Y-9247609D01*
X12097143Y-9247609D02*
X12078095Y-9238085D01*
X12259048Y-9228561D02*
X12268571Y-9238085D01*
X12268571Y-9238085D02*
X12259048Y-9247609D01*
X12259048Y-9247609D02*
X12249524Y-9238085D01*
X12249524Y-9238085D02*
X12259048Y-9228561D01*
X12259048Y-9228561D02*
X12259048Y-9247609D01*
X12259048Y-9123799D02*
X12268571Y-9133323D01*
X12268571Y-9133323D02*
X12259048Y-9142847D01*
X12259048Y-9142847D02*
X12249524Y-9133323D01*
X12249524Y-9133323D02*
X12259048Y-9123799D01*
X12259048Y-9123799D02*
X12259048Y-9142847D01*
M02*
