%TF.GenerationSoftware,KiCad,Pcbnew,7.0.1*%
%TF.CreationDate,2023-08-24T21:02:48+03:00*%
%TF.ProjectId,blinky,626c696e-6b79-42e6-9b69-6361645f7063,rev?*%
%TF.SameCoordinates,Original*%
%TF.FileFunction,Drillmap*%
%TF.FilePolarity,Positive*%
%FSLAX45Y45*%
G04 Gerber Fmt 4.5, Leading zero omitted, Abs format (unit mm)*
G04 Created by KiCad (PCBNEW 7.0.1) date 2023-08-24 21:02:48*
%MOMM*%
%LPD*%
G01*
G04 APERTURE LIST*
%ADD10C,0.100000*%
%ADD11C,0.200000*%
%ADD12C,0.035000*%
G04 APERTURE END LIST*
D10*
X16773585Y-8930085D02*
G75*
G03*
X17114085Y-8590170I585J339915D01*
G01*
X11187000Y-7190000D02*
G75*
G03*
X11187000Y-7190000I-200000J0D01*
G01*
X10987000Y-6830085D02*
G75*
G03*
X10645000Y-7172085I0J-342000D01*
G01*
X10986415Y-6830085D02*
X16773585Y-6829915D01*
X17116170Y-7171915D02*
X17114085Y-8590170D01*
X17116165Y-7171915D02*
G75*
G03*
X16774169Y-6829915I-341995J5D01*
G01*
X10647084Y-8590000D02*
X10645000Y-7172085D01*
X10647084Y-8590000D02*
G75*
G03*
X10986415Y-8929915I339916J0D01*
G01*
X16773585Y-8930085D02*
X10986415Y-8929915D01*
D11*
D12*
X11912880Y-7467880D02*
X11947880Y-7502880D01*
X11947880Y-7467880D02*
X11912880Y-7502880D01*
X12009400Y-8392440D02*
X12044400Y-8427440D01*
X12044400Y-8392440D02*
X12009400Y-8427440D01*
X13170180Y-7737120D02*
X13205180Y-7772120D01*
X13205180Y-7737120D02*
X13170180Y-7772120D01*
X13205740Y-8125740D02*
X13240740Y-8160740D01*
X13240740Y-8125740D02*
X13205740Y-8160740D01*
D11*
X10887619Y-9247609D02*
X10887619Y-9047609D01*
X10887619Y-9047609D02*
X10935238Y-9047609D01*
X10935238Y-9047609D02*
X10963810Y-9057133D01*
X10963810Y-9057133D02*
X10982857Y-9076180D01*
X10982857Y-9076180D02*
X10992381Y-9095228D01*
X10992381Y-9095228D02*
X11001905Y-9133323D01*
X11001905Y-9133323D02*
X11001905Y-9161895D01*
X11001905Y-9161895D02*
X10992381Y-9199990D01*
X10992381Y-9199990D02*
X10982857Y-9219038D01*
X10982857Y-9219038D02*
X10963810Y-9238085D01*
X10963810Y-9238085D02*
X10935238Y-9247609D01*
X10935238Y-9247609D02*
X10887619Y-9247609D01*
X11087619Y-9247609D02*
X11087619Y-9114276D01*
X11087619Y-9152371D02*
X11097143Y-9133323D01*
X11097143Y-9133323D02*
X11106667Y-9123799D01*
X11106667Y-9123799D02*
X11125714Y-9114276D01*
X11125714Y-9114276D02*
X11144762Y-9114276D01*
X11211428Y-9247609D02*
X11211428Y-9114276D01*
X11211428Y-9047609D02*
X11201905Y-9057133D01*
X11201905Y-9057133D02*
X11211428Y-9066657D01*
X11211428Y-9066657D02*
X11220952Y-9057133D01*
X11220952Y-9057133D02*
X11211428Y-9047609D01*
X11211428Y-9047609D02*
X11211428Y-9066657D01*
X11335238Y-9247609D02*
X11316190Y-9238085D01*
X11316190Y-9238085D02*
X11306667Y-9219038D01*
X11306667Y-9219038D02*
X11306667Y-9047609D01*
X11440000Y-9247609D02*
X11420952Y-9238085D01*
X11420952Y-9238085D02*
X11411428Y-9219038D01*
X11411428Y-9219038D02*
X11411428Y-9047609D01*
X11668571Y-9247609D02*
X11668571Y-9047609D01*
X11668571Y-9047609D02*
X11735238Y-9190466D01*
X11735238Y-9190466D02*
X11801905Y-9047609D01*
X11801905Y-9047609D02*
X11801905Y-9247609D01*
X11982857Y-9247609D02*
X11982857Y-9142847D01*
X11982857Y-9142847D02*
X11973333Y-9123799D01*
X11973333Y-9123799D02*
X11954286Y-9114276D01*
X11954286Y-9114276D02*
X11916190Y-9114276D01*
X11916190Y-9114276D02*
X11897143Y-9123799D01*
X11982857Y-9238085D02*
X11963809Y-9247609D01*
X11963809Y-9247609D02*
X11916190Y-9247609D01*
X11916190Y-9247609D02*
X11897143Y-9238085D01*
X11897143Y-9238085D02*
X11887619Y-9219038D01*
X11887619Y-9219038D02*
X11887619Y-9199990D01*
X11887619Y-9199990D02*
X11897143Y-9180942D01*
X11897143Y-9180942D02*
X11916190Y-9171419D01*
X11916190Y-9171419D02*
X11963809Y-9171419D01*
X11963809Y-9171419D02*
X11982857Y-9161895D01*
X12078095Y-9114276D02*
X12078095Y-9314276D01*
X12078095Y-9123799D02*
X12097143Y-9114276D01*
X12097143Y-9114276D02*
X12135238Y-9114276D01*
X12135238Y-9114276D02*
X12154286Y-9123799D01*
X12154286Y-9123799D02*
X12163809Y-9133323D01*
X12163809Y-9133323D02*
X12173333Y-9152371D01*
X12173333Y-9152371D02*
X12173333Y-9209514D01*
X12173333Y-9209514D02*
X12163809Y-9228561D01*
X12163809Y-9228561D02*
X12154286Y-9238085D01*
X12154286Y-9238085D02*
X12135238Y-9247609D01*
X12135238Y-9247609D02*
X12097143Y-9247609D01*
X12097143Y-9247609D02*
X12078095Y-9238085D01*
X12259048Y-9228561D02*
X12268571Y-9238085D01*
X12268571Y-9238085D02*
X12259048Y-9247609D01*
X12259048Y-9247609D02*
X12249524Y-9238085D01*
X12249524Y-9238085D02*
X12259048Y-9228561D01*
X12259048Y-9228561D02*
X12259048Y-9247609D01*
X12259048Y-9123799D02*
X12268571Y-9133323D01*
X12268571Y-9133323D02*
X12259048Y-9142847D01*
X12259048Y-9142847D02*
X12249524Y-9133323D01*
X12249524Y-9133323D02*
X12259048Y-9123799D01*
X12259048Y-9123799D02*
X12259048Y-9142847D01*
D12*
X10605000Y-9557585D02*
X10640000Y-9592585D01*
X10640000Y-9557585D02*
X10605000Y-9592585D01*
D11*
X10925714Y-9467609D02*
X10944762Y-9467609D01*
X10944762Y-9467609D02*
X10963810Y-9477133D01*
X10963810Y-9477133D02*
X10973333Y-9486657D01*
X10973333Y-9486657D02*
X10982857Y-9505704D01*
X10982857Y-9505704D02*
X10992381Y-9543799D01*
X10992381Y-9543799D02*
X10992381Y-9591419D01*
X10992381Y-9591419D02*
X10982857Y-9629514D01*
X10982857Y-9629514D02*
X10973333Y-9648561D01*
X10973333Y-9648561D02*
X10963810Y-9658085D01*
X10963810Y-9658085D02*
X10944762Y-9667609D01*
X10944762Y-9667609D02*
X10925714Y-9667609D01*
X10925714Y-9667609D02*
X10906667Y-9658085D01*
X10906667Y-9658085D02*
X10897143Y-9648561D01*
X10897143Y-9648561D02*
X10887619Y-9629514D01*
X10887619Y-9629514D02*
X10878095Y-9591419D01*
X10878095Y-9591419D02*
X10878095Y-9543799D01*
X10878095Y-9543799D02*
X10887619Y-9505704D01*
X10887619Y-9505704D02*
X10897143Y-9486657D01*
X10897143Y-9486657D02*
X10906667Y-9477133D01*
X10906667Y-9477133D02*
X10925714Y-9467609D01*
X11078095Y-9648561D02*
X11087619Y-9658085D01*
X11087619Y-9658085D02*
X11078095Y-9667609D01*
X11078095Y-9667609D02*
X11068571Y-9658085D01*
X11068571Y-9658085D02*
X11078095Y-9648561D01*
X11078095Y-9648561D02*
X11078095Y-9667609D01*
X11154286Y-9467609D02*
X11278095Y-9467609D01*
X11278095Y-9467609D02*
X11211428Y-9543799D01*
X11211428Y-9543799D02*
X11240000Y-9543799D01*
X11240000Y-9543799D02*
X11259048Y-9553323D01*
X11259048Y-9553323D02*
X11268571Y-9562847D01*
X11268571Y-9562847D02*
X11278095Y-9581895D01*
X11278095Y-9581895D02*
X11278095Y-9629514D01*
X11278095Y-9629514D02*
X11268571Y-9648561D01*
X11268571Y-9648561D02*
X11259048Y-9658085D01*
X11259048Y-9658085D02*
X11240000Y-9667609D01*
X11240000Y-9667609D02*
X11182857Y-9667609D01*
X11182857Y-9667609D02*
X11163810Y-9658085D01*
X11163810Y-9658085D02*
X11154286Y-9648561D01*
X11459048Y-9467609D02*
X11363809Y-9467609D01*
X11363809Y-9467609D02*
X11354286Y-9562847D01*
X11354286Y-9562847D02*
X11363809Y-9553323D01*
X11363809Y-9553323D02*
X11382857Y-9543799D01*
X11382857Y-9543799D02*
X11430476Y-9543799D01*
X11430476Y-9543799D02*
X11449524Y-9553323D01*
X11449524Y-9553323D02*
X11459048Y-9562847D01*
X11459048Y-9562847D02*
X11468571Y-9581895D01*
X11468571Y-9581895D02*
X11468571Y-9629514D01*
X11468571Y-9629514D02*
X11459048Y-9648561D01*
X11459048Y-9648561D02*
X11449524Y-9658085D01*
X11449524Y-9658085D02*
X11430476Y-9667609D01*
X11430476Y-9667609D02*
X11382857Y-9667609D01*
X11382857Y-9667609D02*
X11363809Y-9658085D01*
X11363809Y-9658085D02*
X11354286Y-9648561D01*
X11592381Y-9467609D02*
X11611429Y-9467609D01*
X11611429Y-9467609D02*
X11630476Y-9477133D01*
X11630476Y-9477133D02*
X11640000Y-9486657D01*
X11640000Y-9486657D02*
X11649524Y-9505704D01*
X11649524Y-9505704D02*
X11659048Y-9543799D01*
X11659048Y-9543799D02*
X11659048Y-9591419D01*
X11659048Y-9591419D02*
X11649524Y-9629514D01*
X11649524Y-9629514D02*
X11640000Y-9648561D01*
X11640000Y-9648561D02*
X11630476Y-9658085D01*
X11630476Y-9658085D02*
X11611429Y-9667609D01*
X11611429Y-9667609D02*
X11592381Y-9667609D01*
X11592381Y-9667609D02*
X11573333Y-9658085D01*
X11573333Y-9658085D02*
X11563809Y-9648561D01*
X11563809Y-9648561D02*
X11554286Y-9629514D01*
X11554286Y-9629514D02*
X11544762Y-9591419D01*
X11544762Y-9591419D02*
X11544762Y-9543799D01*
X11544762Y-9543799D02*
X11554286Y-9505704D01*
X11554286Y-9505704D02*
X11563809Y-9486657D01*
X11563809Y-9486657D02*
X11573333Y-9477133D01*
X11573333Y-9477133D02*
X11592381Y-9467609D01*
X11744762Y-9667609D02*
X11744762Y-9534276D01*
X11744762Y-9553323D02*
X11754286Y-9543799D01*
X11754286Y-9543799D02*
X11773333Y-9534276D01*
X11773333Y-9534276D02*
X11801905Y-9534276D01*
X11801905Y-9534276D02*
X11820952Y-9543799D01*
X11820952Y-9543799D02*
X11830476Y-9562847D01*
X11830476Y-9562847D02*
X11830476Y-9667609D01*
X11830476Y-9562847D02*
X11840000Y-9543799D01*
X11840000Y-9543799D02*
X11859048Y-9534276D01*
X11859048Y-9534276D02*
X11887619Y-9534276D01*
X11887619Y-9534276D02*
X11906667Y-9543799D01*
X11906667Y-9543799D02*
X11916190Y-9562847D01*
X11916190Y-9562847D02*
X11916190Y-9667609D01*
X12011429Y-9667609D02*
X12011429Y-9534276D01*
X12011429Y-9553323D02*
X12020952Y-9543799D01*
X12020952Y-9543799D02*
X12040000Y-9534276D01*
X12040000Y-9534276D02*
X12068571Y-9534276D01*
X12068571Y-9534276D02*
X12087619Y-9543799D01*
X12087619Y-9543799D02*
X12097143Y-9562847D01*
X12097143Y-9562847D02*
X12097143Y-9667609D01*
X12097143Y-9562847D02*
X12106667Y-9543799D01*
X12106667Y-9543799D02*
X12125714Y-9534276D01*
X12125714Y-9534276D02*
X12154286Y-9534276D01*
X12154286Y-9534276D02*
X12173333Y-9543799D01*
X12173333Y-9543799D02*
X12182857Y-9562847D01*
X12182857Y-9562847D02*
X12182857Y-9667609D01*
X12573333Y-9458085D02*
X12401905Y-9715228D01*
X12830476Y-9467609D02*
X12849524Y-9467609D01*
X12849524Y-9467609D02*
X12868572Y-9477133D01*
X12868572Y-9477133D02*
X12878095Y-9486657D01*
X12878095Y-9486657D02*
X12887619Y-9505704D01*
X12887619Y-9505704D02*
X12897143Y-9543799D01*
X12897143Y-9543799D02*
X12897143Y-9591419D01*
X12897143Y-9591419D02*
X12887619Y-9629514D01*
X12887619Y-9629514D02*
X12878095Y-9648561D01*
X12878095Y-9648561D02*
X12868572Y-9658085D01*
X12868572Y-9658085D02*
X12849524Y-9667609D01*
X12849524Y-9667609D02*
X12830476Y-9667609D01*
X12830476Y-9667609D02*
X12811429Y-9658085D01*
X12811429Y-9658085D02*
X12801905Y-9648561D01*
X12801905Y-9648561D02*
X12792381Y-9629514D01*
X12792381Y-9629514D02*
X12782857Y-9591419D01*
X12782857Y-9591419D02*
X12782857Y-9543799D01*
X12782857Y-9543799D02*
X12792381Y-9505704D01*
X12792381Y-9505704D02*
X12801905Y-9486657D01*
X12801905Y-9486657D02*
X12811429Y-9477133D01*
X12811429Y-9477133D02*
X12830476Y-9467609D01*
X12982857Y-9648561D02*
X12992381Y-9658085D01*
X12992381Y-9658085D02*
X12982857Y-9667609D01*
X12982857Y-9667609D02*
X12973333Y-9658085D01*
X12973333Y-9658085D02*
X12982857Y-9648561D01*
X12982857Y-9648561D02*
X12982857Y-9667609D01*
X13116191Y-9467609D02*
X13135238Y-9467609D01*
X13135238Y-9467609D02*
X13154286Y-9477133D01*
X13154286Y-9477133D02*
X13163810Y-9486657D01*
X13163810Y-9486657D02*
X13173333Y-9505704D01*
X13173333Y-9505704D02*
X13182857Y-9543799D01*
X13182857Y-9543799D02*
X13182857Y-9591419D01*
X13182857Y-9591419D02*
X13173333Y-9629514D01*
X13173333Y-9629514D02*
X13163810Y-9648561D01*
X13163810Y-9648561D02*
X13154286Y-9658085D01*
X13154286Y-9658085D02*
X13135238Y-9667609D01*
X13135238Y-9667609D02*
X13116191Y-9667609D01*
X13116191Y-9667609D02*
X13097143Y-9658085D01*
X13097143Y-9658085D02*
X13087619Y-9648561D01*
X13087619Y-9648561D02*
X13078095Y-9629514D01*
X13078095Y-9629514D02*
X13068572Y-9591419D01*
X13068572Y-9591419D02*
X13068572Y-9543799D01*
X13068572Y-9543799D02*
X13078095Y-9505704D01*
X13078095Y-9505704D02*
X13087619Y-9486657D01*
X13087619Y-9486657D02*
X13097143Y-9477133D01*
X13097143Y-9477133D02*
X13116191Y-9467609D01*
X13373333Y-9667609D02*
X13259048Y-9667609D01*
X13316191Y-9667609D02*
X13316191Y-9467609D01*
X13316191Y-9467609D02*
X13297143Y-9496180D01*
X13297143Y-9496180D02*
X13278095Y-9515228D01*
X13278095Y-9515228D02*
X13259048Y-9524752D01*
X13440000Y-9467609D02*
X13563810Y-9467609D01*
X13563810Y-9467609D02*
X13497143Y-9543799D01*
X13497143Y-9543799D02*
X13525714Y-9543799D01*
X13525714Y-9543799D02*
X13544762Y-9553323D01*
X13544762Y-9553323D02*
X13554286Y-9562847D01*
X13554286Y-9562847D02*
X13563810Y-9581895D01*
X13563810Y-9581895D02*
X13563810Y-9629514D01*
X13563810Y-9629514D02*
X13554286Y-9648561D01*
X13554286Y-9648561D02*
X13544762Y-9658085D01*
X13544762Y-9658085D02*
X13525714Y-9667609D01*
X13525714Y-9667609D02*
X13468572Y-9667609D01*
X13468572Y-9667609D02*
X13449524Y-9658085D01*
X13449524Y-9658085D02*
X13440000Y-9648561D01*
X13678095Y-9553323D02*
X13659048Y-9543799D01*
X13659048Y-9543799D02*
X13649524Y-9534276D01*
X13649524Y-9534276D02*
X13640000Y-9515228D01*
X13640000Y-9515228D02*
X13640000Y-9505704D01*
X13640000Y-9505704D02*
X13649524Y-9486657D01*
X13649524Y-9486657D02*
X13659048Y-9477133D01*
X13659048Y-9477133D02*
X13678095Y-9467609D01*
X13678095Y-9467609D02*
X13716191Y-9467609D01*
X13716191Y-9467609D02*
X13735238Y-9477133D01*
X13735238Y-9477133D02*
X13744762Y-9486657D01*
X13744762Y-9486657D02*
X13754286Y-9505704D01*
X13754286Y-9505704D02*
X13754286Y-9515228D01*
X13754286Y-9515228D02*
X13744762Y-9534276D01*
X13744762Y-9534276D02*
X13735238Y-9543799D01*
X13735238Y-9543799D02*
X13716191Y-9553323D01*
X13716191Y-9553323D02*
X13678095Y-9553323D01*
X13678095Y-9553323D02*
X13659048Y-9562847D01*
X13659048Y-9562847D02*
X13649524Y-9572371D01*
X13649524Y-9572371D02*
X13640000Y-9591419D01*
X13640000Y-9591419D02*
X13640000Y-9629514D01*
X13640000Y-9629514D02*
X13649524Y-9648561D01*
X13649524Y-9648561D02*
X13659048Y-9658085D01*
X13659048Y-9658085D02*
X13678095Y-9667609D01*
X13678095Y-9667609D02*
X13716191Y-9667609D01*
X13716191Y-9667609D02*
X13735238Y-9658085D01*
X13735238Y-9658085D02*
X13744762Y-9648561D01*
X13744762Y-9648561D02*
X13754286Y-9629514D01*
X13754286Y-9629514D02*
X13754286Y-9591419D01*
X13754286Y-9591419D02*
X13744762Y-9572371D01*
X13744762Y-9572371D02*
X13735238Y-9562847D01*
X13735238Y-9562847D02*
X13716191Y-9553323D01*
X13830476Y-9467609D02*
X13830476Y-9505704D01*
X13906667Y-9467609D02*
X13906667Y-9505704D01*
X14201905Y-9743799D02*
X14192381Y-9734276D01*
X14192381Y-9734276D02*
X14173334Y-9705704D01*
X14173334Y-9705704D02*
X14163810Y-9686657D01*
X14163810Y-9686657D02*
X14154286Y-9658085D01*
X14154286Y-9658085D02*
X14144762Y-9610466D01*
X14144762Y-9610466D02*
X14144762Y-9572371D01*
X14144762Y-9572371D02*
X14154286Y-9524752D01*
X14154286Y-9524752D02*
X14163810Y-9496180D01*
X14163810Y-9496180D02*
X14173334Y-9477133D01*
X14173334Y-9477133D02*
X14192381Y-9448561D01*
X14192381Y-9448561D02*
X14201905Y-9439038D01*
X14363810Y-9534276D02*
X14363810Y-9667609D01*
X14316191Y-9458085D02*
X14268572Y-9600942D01*
X14268572Y-9600942D02*
X14392381Y-9600942D01*
X14620953Y-9667609D02*
X14620953Y-9467609D01*
X14706667Y-9667609D02*
X14706667Y-9562847D01*
X14706667Y-9562847D02*
X14697143Y-9543799D01*
X14697143Y-9543799D02*
X14678096Y-9534276D01*
X14678096Y-9534276D02*
X14649524Y-9534276D01*
X14649524Y-9534276D02*
X14630476Y-9543799D01*
X14630476Y-9543799D02*
X14620953Y-9553323D01*
X14830476Y-9667609D02*
X14811429Y-9658085D01*
X14811429Y-9658085D02*
X14801905Y-9648561D01*
X14801905Y-9648561D02*
X14792381Y-9629514D01*
X14792381Y-9629514D02*
X14792381Y-9572371D01*
X14792381Y-9572371D02*
X14801905Y-9553323D01*
X14801905Y-9553323D02*
X14811429Y-9543799D01*
X14811429Y-9543799D02*
X14830476Y-9534276D01*
X14830476Y-9534276D02*
X14859048Y-9534276D01*
X14859048Y-9534276D02*
X14878096Y-9543799D01*
X14878096Y-9543799D02*
X14887619Y-9553323D01*
X14887619Y-9553323D02*
X14897143Y-9572371D01*
X14897143Y-9572371D02*
X14897143Y-9629514D01*
X14897143Y-9629514D02*
X14887619Y-9648561D01*
X14887619Y-9648561D02*
X14878096Y-9658085D01*
X14878096Y-9658085D02*
X14859048Y-9667609D01*
X14859048Y-9667609D02*
X14830476Y-9667609D01*
X15011429Y-9667609D02*
X14992381Y-9658085D01*
X14992381Y-9658085D02*
X14982857Y-9639038D01*
X14982857Y-9639038D02*
X14982857Y-9467609D01*
X15163810Y-9658085D02*
X15144762Y-9667609D01*
X15144762Y-9667609D02*
X15106667Y-9667609D01*
X15106667Y-9667609D02*
X15087619Y-9658085D01*
X15087619Y-9658085D02*
X15078096Y-9639038D01*
X15078096Y-9639038D02*
X15078096Y-9562847D01*
X15078096Y-9562847D02*
X15087619Y-9543799D01*
X15087619Y-9543799D02*
X15106667Y-9534276D01*
X15106667Y-9534276D02*
X15144762Y-9534276D01*
X15144762Y-9534276D02*
X15163810Y-9543799D01*
X15163810Y-9543799D02*
X15173334Y-9562847D01*
X15173334Y-9562847D02*
X15173334Y-9581895D01*
X15173334Y-9581895D02*
X15078096Y-9600942D01*
X15249524Y-9658085D02*
X15268572Y-9667609D01*
X15268572Y-9667609D02*
X15306667Y-9667609D01*
X15306667Y-9667609D02*
X15325715Y-9658085D01*
X15325715Y-9658085D02*
X15335238Y-9639038D01*
X15335238Y-9639038D02*
X15335238Y-9629514D01*
X15335238Y-9629514D02*
X15325715Y-9610466D01*
X15325715Y-9610466D02*
X15306667Y-9600942D01*
X15306667Y-9600942D02*
X15278096Y-9600942D01*
X15278096Y-9600942D02*
X15259048Y-9591419D01*
X15259048Y-9591419D02*
X15249524Y-9572371D01*
X15249524Y-9572371D02*
X15249524Y-9562847D01*
X15249524Y-9562847D02*
X15259048Y-9543799D01*
X15259048Y-9543799D02*
X15278096Y-9534276D01*
X15278096Y-9534276D02*
X15306667Y-9534276D01*
X15306667Y-9534276D02*
X15325715Y-9543799D01*
X15401905Y-9743799D02*
X15411429Y-9734276D01*
X15411429Y-9734276D02*
X15430477Y-9705704D01*
X15430477Y-9705704D02*
X15440000Y-9686657D01*
X15440000Y-9686657D02*
X15449524Y-9658085D01*
X15449524Y-9658085D02*
X15459048Y-9610466D01*
X15459048Y-9610466D02*
X15459048Y-9572371D01*
X15459048Y-9572371D02*
X15449524Y-9524752D01*
X15449524Y-9524752D02*
X15440000Y-9496180D01*
X15440000Y-9496180D02*
X15430477Y-9477133D01*
X15430477Y-9477133D02*
X15411429Y-9448561D01*
X15411429Y-9448561D02*
X15401905Y-9439038D01*
M02*
